# This file uses meters as units for non-parametric coordinates.

v 231.124512 -69.653503 11.870789
v 231.124512 -18.776184 11.870789
v 189.963928 -44.214844 -54.728455
v 205.685913 -3.054260 -29.289795
v 205.685913 -85.375427 -29.289795
v 189.963928 -44.214844 78.470032
v 205.685913 -85.375427 53.031372
v 205.685913 -3.054260 53.031372
v 97.926025 -69.653503 11.870789
v 97.926025 -18.776184 11.870789
v 139.086609 -44.214844 78.470032
v 123.364685 -85.375427 53.031372
v 123.364685 -3.054260 53.031372
v 139.086609 -44.214844 -54.728455
v 123.364685 -3.054260 -29.289795
v 123.364685 -85.375427 -29.289795
v 164.525269 -110.814087 37.309448
v 164.525269 22.384399 37.309448
v 164.525269 22.384399 -13.567871
v 164.525269 -110.814087 -13.567871
v 120.160522 -14.709961 -20.107727
v 79.842651 -14.709961 -20.107727
v 59.683716 -35.341309 8.061279
v 79.842651 -55.972656 36.230347
v 120.160522 -55.972656 36.230347
v 140.319458 -35.341309 8.061279
v 134.917908 17.551208 -28.162231
v 65.085327 17.551208 -28.162231
v 30.169006 -18.183350 20.627991
v 65.085266 -53.917969 69.418213
v 134.917908 -53.917969 69.418213
v 169.834167 -18.183411 20.627991
v 140.319458 46.517456 -18.543701
v 59.683716 46.517456 -18.543701
v 19.365845 5.254761 37.794373
v 59.683716 -36.007935 94.132446
v 140.319458 -36.007935 94.132446
v 180.637329 5.254761 37.794373
v 134.917908 64.427490 6.170593
v 65.085327 64.427490 6.170532
v 30.169006 28.692932 54.960754
v 65.085266 -7.041687 103.750977
v 134.917908 -7.041687 103.750977
v 169.834167 28.692932 54.960754
v 120.160522 66.482178 39.358398
v 79.842651 66.482178 39.358398
v 59.683716 45.850830 67.527405
v 79.842651 25.219482 95.696472
v 120.160522 25.219482 95.696472
v 140.319458 45.850830 67.527466
v 100.001587 -41.621521 3.461609
v 100.001587 52.131042 72.127136
v 69.452454 -109.365234 -77.154724
v 8.206055 -109.365234 -88.019043
v -40.909790 -109.365234 -57.578003
v -40.909790 -109.365234 -8.754395
v 8.205994 -109.365234 21.686646
v 69.452454 -109.365234 10.822327
v 96.709656 -109.365234 -33.166199
v 105.649658 -81.292969 -112.430847
v -4.712585 -81.292969 -132.007629
v -93.216248 -81.292969 -77.154724
v -93.216248 -81.292969 10.822327
v -4.712646 -81.292969 65.675171
v 105.649658 -81.292969 46.098450
v 154.765503 -81.292969 -33.166199
v 125.737610 -40.727295 -132.007507
v -11.881897 -40.727295 -156.419373
v -122.244141 -40.727295 -88.019043
v -122.244141 -40.727295 21.686584
v -11.881897 -40.727295 90.086975
v 125.737549 -40.727295 65.675171
v 186.984009 -40.727295 -33.166199
v 125.737610 4.297119 -132.007507
v -11.881897 4.297119 -156.419373
v -122.244141 4.297119 -88.019043
v -122.244141 4.297119 21.686584
v -11.881897 4.297119 90.086975
v 125.737549 4.297119 65.675171
v 186.984009 4.297119 -33.166199
v 105.649658 44.862732 -112.430847
v -4.712585 44.862732 -132.007629
v -93.216248 44.862732 -77.154724
v -93.216248 44.862732 10.822327
v -4.712646 44.862732 65.675171
v 105.649658 44.862732 46.098450
v 154.765503 44.862732 -33.166199
v 69.452454 72.934998 -77.154724
v 8.206055 72.934998 -88.019043
v -40.909790 72.934998 -57.578003
v -40.909790 72.934998 -8.754395
v 8.205994 72.934998 21.686646
v 69.452454 72.934998 10.822327
v 96.709656 72.934998 -33.166199
v 24.315308 -119.384094 -33.166199
v 24.315308 82.953857 -33.166199
v -13.779785 -7.571899 68.552612
v -13.779785 47.665894 68.552612
v -58.468018 20.046997 -3.754517
v -41.398682 64.735229 23.864319
v -41.398682 -24.641235 23.864319
v -58.468018 20.046997 140.859741
v -41.398682 -24.641235 113.240906
v -41.398682 64.735229 113.240906
v -158.394043 -7.571899 68.552612
v -158.394043 47.665894 68.552612
v -113.705811 20.046997 140.859741
v -130.775146 -24.641235 113.240906
v -130.775146 64.735229 113.240906
v -113.705811 20.046997 -3.754517
v -130.775146 64.735229 23.864319
v -130.775146 -24.641235 23.864319
v -86.086914 -52.260132 96.171509
v -86.086914 92.354126 96.171509
v -86.086914 92.354126 40.933716
v -86.086914 -52.260132 40.933716
v -54.848145 10.508667 -34.270447
v -84.021240 10.508667 -34.270447
v -98.607788 10.508667 -9.005798
v -84.021240 10.508667 16.258850
v -54.848145 10.508667 16.258850
v -40.261597 10.508667 -9.005798
v -44.170044 31.864868 -52.765442
v -94.699341 31.864868 -52.765442
v -119.963989 31.864868 -9.005798
v -94.699341 31.864868 34.753845
v -44.170044 31.864868 34.753845
v -18.905396 31.864868 -9.005798
v -40.261597 61.037964 -59.535095
v -98.607788 61.037964 -59.535095
v -127.780884 61.037964 -9.005798
v -98.607788 61.037964 41.523499
v -40.261597 61.037964 41.523499
v -11.088501 61.037964 -9.005798
v -44.170044 90.211060 -52.765442
v -94.699341 90.211060 -52.765442
v -119.963989 90.211060 -9.005798
v -94.699341 90.211060 34.753845
v -44.170044 90.211060 34.753845
v -18.905396 90.211060 -9.005798
v -54.848145 111.567261 -34.270447
v -84.021240 111.567261 -34.270447
v -98.607788 111.567261 -9.005798
v -84.021240 111.567261 16.258850
v -54.848145 111.567261 16.258850
v -40.261597 111.567261 -9.005798
v -69.434692 2.691772 -9.005798
v -69.434692 119.384155 -9.005798
v 102.245300 4.687500 -72.207214
v 72.191040 4.687500 -72.207214
v 57.163879 4.687500 -46.179443
v 72.190979 4.687500 -20.151672
v 102.245300 4.687500 -20.151672
v 117.272400 4.687500 -46.179443
v 113.245911 26.688782 -91.260864
v 61.190369 26.688782 -91.260864
v 35.162598 26.688782 -46.179443
v 61.190369 26.688782 -1.098022
v 113.245911 26.688782 -1.098022
v 139.273682 26.688782 -46.179443
v 117.272400 56.743042 -98.234985
v 57.163879 56.743042 -98.234985
v 27.109619 56.743042 -46.179443
v 57.163879 56.743042 5.876099
v 117.272400 56.743042 5.876099
v 147.326660 56.743042 -46.179443
v 113.245911 86.797302 -91.260864
v 61.190369 86.797302 -91.260864
v 35.162598 86.797302 -46.179443
v 61.190369 86.797302 -1.098022
v 113.245911 86.797302 -1.098022
v 139.273682 86.797302 -46.179443
v 102.245300 108.798584 -72.207214
v 72.191040 108.798584 -72.207214
v 57.163879 108.798584 -46.179443
v 72.190979 108.798584 -20.151672
v 102.245300 108.798584 -20.151672
v 117.272400 108.798584 -46.179443
v 87.218140 -3.365479 -46.179443
v 87.218140 116.851563 -46.179443
v 127.116760 -97.923096 90.312988
v 101.672424 -97.923096 90.312988
v 88.950256 -97.923096 112.348450
v 101.672424 -97.923096 134.383911
v 127.116760 -97.923096 134.383911
v 139.838928 -97.923096 112.348450
v 136.430054 -79.296509 74.181885
v 92.359131 -79.296509 74.181885
v 70.323669 -79.296509 112.348450
v 92.359131 -79.296509 150.515015
v 136.430054 -79.296509 150.515015
v 158.465515 -79.296509 112.348450
v 139.838989 -53.852173 68.277527
v 88.950256 -53.852173 68.277527
v 63.505859 -53.852173 112.348450
v 88.950195 -53.852173 156.419373
v 139.838928 -53.852173 156.419373
v 165.283325 -53.852173 112.348450
v 136.430054 -28.407837 74.181885
v 92.359131 -28.407837 74.181885
v 70.323669 -28.407837 112.348450
v 92.359131 -28.407837 150.515015
v 136.430054 -28.407837 150.515015
v 158.465515 -28.407837 112.348450
v 127.116760 -9.781250 90.312988
v 101.672424 -9.781250 90.312988
v 88.950256 -9.781250 112.348450
v 101.672424 -9.781250 134.383911
v 127.116760 -9.781250 134.383911
v 139.838928 -9.781250 112.348450
v 114.394592 -104.740906 112.348450
v 114.394592 -2.963440 112.348450
v 197.801331 -54.348877 65.955078
v 197.801331 -34.080811 88.946655
v 173.005127 -14.118469 50.919556
v 182.476440 -9.217041 79.654175
v 182.476440 -42.011536 42.453064
v 173.005127 -74.311218 103.982178
v 182.476440 -79.212646 75.247559
v 182.476440 -46.418152 112.448669
v 117.559143 -54.348877 65.955078
v 117.559143 -34.080811 88.946655
v 142.355347 -74.311218 103.982178
v 132.884033 -79.212646 75.247559
v 132.884033 -46.418152 112.448669
v 142.355347 -14.118469 50.919556
v 132.884033 -9.217041 79.654175
v 132.884033 -42.011536 42.453064
v 157.680237 -82.241943 57.488586
v 157.680237 -29.179321 117.681274
v 157.680237 -6.187744 97.413147
v 157.680237 -59.250366 37.220459
v -112.542786 4.190125 37.470154
v -112.542786 17.779114 71.138611
v -141.916138 55.057251 36.516113
v -130.696533 49.216736 70.549011
v -130.696533 27.229248 16.072266
v -141.916138 -33.088013 72.092651
v -130.696533 -27.247498 38.059753
v -130.696533 -5.260010 92.536499
v -207.596863 4.190125 37.470154
v -207.596863 17.779114 71.138611
v -178.223511 -33.088013 72.092651
v -189.443115 -27.247498 38.059753
v -189.443115 -5.260010 92.536499
v -178.223511 55.057251 36.516113
v -189.443115 49.216736 70.549011
v -189.443115 27.229248 16.072266
v -160.069824 -23.637878 17.026245
v -160.069824 11.938599 105.171509
v -160.069824 45.607117 91.582520
v -160.069824 10.030640 3.437256
v 233.954102 -97.923096 19.896790
v 208.509766 -97.923096 19.896790
v 195.787598 -97.923096 41.932251
v 208.509766 -97.923096 63.967712
v 233.954102 -97.923096 63.967712
v 246.676270 -97.923096 41.932251
v 243.267456 -79.296509 3.765686
v 199.196472 -79.296509 3.765686
v 177.161011 -79.296509 41.932251
v 199.196472 -79.296509 80.098816
v 243.267456 -79.296509 80.098816
v 265.302856 -79.296509 41.932251
v 246.676270 -53.852173 -2.138672
v 195.787598 -53.852173 -2.138672
v 170.343201 -53.852173 41.932251
v 195.787598 -53.852173 86.003174
v 246.676270 -53.852173 86.003174
v 272.120605 -53.852173 41.932251
v 243.267456 -28.407837 3.765686
v 199.196472 -28.407837 3.765686
v 177.161011 -28.407837 41.932251
v 199.196472 -28.407837 80.098816
v 243.267456 -28.407837 80.098816
v 265.302856 -28.407837 41.932251
v 233.954102 -9.781250 19.896790
v 208.509766 -9.781250 19.896790
v 195.787598 -9.781250 41.932251
v 208.509766 -9.781250 63.967712
v 233.954102 -9.781250 63.967712
v 246.676270 -9.781250 41.932251
v 221.231934 -104.740906 41.932251
v 221.231934 -2.963440 41.932251
v -191.878418 0.850586 5.305542
v -191.878418 21.118652 28.297119
v -216.674622 41.080994 -9.729980
v -207.203308 45.982422 19.004639
v -207.203308 13.187927 -18.196472
v -216.674622 -19.111755 43.332642
v -207.203308 -24.013184 14.598022
v -207.203308 8.781311 51.799133
v -272.120605 0.850586 5.305542
v -272.120605 21.118652 28.297119
v -247.324402 -19.111755 43.332642
v -256.795715 -24.013184 14.598022
v -256.795715 8.781311 51.799133
v -247.324402 41.080994 -9.729980
v -256.795715 45.982422 19.004639
v -256.795715 13.187927 -18.196472
v -231.999512 -27.042480 -3.160950
v -231.999512 26.020142 57.031738
v -231.999512 49.011719 36.763611
v -231.999512 -4.050903 -23.429077
vt 0.099106 0.250000
vt 0.221609 0.250000
vt 0.259464 0.368034
vt 0.160357 0.440983
vt 0.061251 0.368034
vt 0.037855 0.440983
vt 0.198213 0.559017
vt 0.099106 0.631966
vt 0.000000 0.559017
vt 0.320715 0.559017
vt 0.358570 0.677051
vt 0.259464 0.750000
vt 0.160357 0.677051
vt 0.358570 0.440983
vt 0.481072 0.440983
vt 0.518928 0.559017
vt 0.419821 0.631966
vt 0.297319 0.250000
vt 0.419821 0.250000
vt 0.457677 0.368034
vt 0.740536 0.250000
vt 0.839643 0.322949
vt 0.801787 0.440983
vt 0.679285 0.440983
vt 0.641430 0.322949
vt 0.580179 0.368034
vt 0.641430 0.559017
vt 0.740536 0.631966
vt 0.702681 0.750000
vt 0.580179 0.750000
vt 0.542323 0.631966
vt 0.839643 0.559017
vt 0.938749 0.631966
vt 0.900894 0.750000
vt 0.778391 0.750000
vt 0.900894 0.368034
vt 1.000000 0.440983
vt 0.962145 0.559017
vt 0.000000 0.166667
vt 0.166667 0.166667
vt 0.000000 0.333333
vt 0.166667 0.333333
vt 0.333333 0.166667
vt 0.333333 0.333333
vt 0.500000 0.166667
vt 0.500000 0.333333
vt 0.666667 0.166667
vt 0.666667 0.333333
vt 0.833333 0.166667
vt 0.833333 0.333333
vt 1.000000 0.166667
vt 1.000000 0.333333
vt 0.000000 0.500000
vt 0.166667 0.500000
vt 0.333333 0.500000
vt 0.500000 0.500000
vt 0.666667 0.500000
vt 0.833333 0.500000
vt 1.000000 0.500000
vt 0.000000 0.666667
vt 0.166667 0.666667
vt 0.333333 0.666667
vt 0.500000 0.666667
vt 0.666667 0.666667
vt 0.833333 0.666667
vt 1.000000 0.666667
vt 0.000000 0.833333
vt 0.166667 0.833333
vt 0.333333 0.833333
vt 0.500000 0.833333
vt 0.666667 0.833333
vt 0.833333 0.833333
vt 1.000000 0.833333
vt 0.083333 0.000000
vt 0.250000 0.000000
vt 0.416667 0.000000
vt 0.583333 0.000000
vt 0.750000 0.000000
vt 0.916667 0.000000
vt 0.083333 1.000000
vt 0.250000 1.000000
vt 0.416667 1.000000
vt 0.583333 1.000000
vt 0.750000 1.000000
vt 0.916667 1.000000
vt 0.000000 0.142857
vt 0.142857 0.142857
vt 0.000000 0.285714
vt 0.142857 0.285714
vt 0.285714 0.142857
vt 0.285714 0.285714
vt 0.428571 0.142857
vt 0.428571 0.285714
vt 0.571429 0.142857
vt 0.571429 0.285714
vt 0.714286 0.142857
vt 0.714286 0.285714
vt 0.857143 0.142857
vt 0.857143 0.285714
vt 1.000000 0.142857
vt 1.000000 0.285714
vt 0.000000 0.428571
vt 0.142857 0.428571
vt 0.285714 0.428571
vt 0.428571 0.428571
vt 0.571429 0.428571
vt 0.714286 0.428571
vt 0.857143 0.428571
vt 1.000000 0.428571
vt 0.000000 0.571429
vt 0.142857 0.571429
vt 0.285714 0.571429
vt 0.428571 0.571429
vt 0.571429 0.571429
vt 0.714286 0.571429
vt 0.857143 0.571429
vt 1.000000 0.571429
vt 0.000000 0.714286
vt 0.142857 0.714286
vt 0.285714 0.714286
vt 0.428571 0.714286
vt 0.571429 0.714286
vt 0.714286 0.714286
vt 0.857143 0.714286
vt 1.000000 0.714286
vt 0.000000 0.857143
vt 0.142857 0.857143
vt 0.285714 0.857143
vt 0.428571 0.857143
vt 0.571429 0.857143
vt 0.714286 0.857143
vt 0.857143 0.857143
vt 1.000000 0.857143
vt 0.071429 0.000000
vt 0.214286 0.000000
vt 0.357143 0.000000
vt 0.500000 0.000000
vt 0.642857 0.000000
vt 0.785714 0.000000
vt 0.928571 0.000000
vt 0.071429 1.000000
vt 0.214286 1.000000
vt 0.357143 1.000000
vt 0.500000 1.000000
vt 0.642857 1.000000
vt 0.785714 1.000000
vt 0.928571 1.000000
vt 0.198213 0.559017
vt 0.099106 0.631966
vt 0.000000 0.559017
vt 0.037855 0.440983
vt 0.160357 0.440983
vt 0.259464 0.368034
vt 0.358570 0.440983
vt 0.320715 0.559017
vt 0.358570 0.677051
vt 0.259464 0.750000
vt 0.160357 0.677051
vt 0.481072 0.440983
vt 0.518928 0.559017
vt 0.419821 0.631966
vt 0.580179 0.750000
vt 0.542323 0.631966
vt 0.641430 0.559017
vt 0.740536 0.631966
vt 0.702681 0.750000
vt 0.900894 0.750000
vt 0.778391 0.750000
vt 0.839643 0.559017
vt 0.938749 0.631966
vt 0.962145 0.559017
vt 0.801787 0.440983
vt 0.900894 0.368034
vt 1.000000 0.440983
vt 0.061251 0.368034
vt 0.099106 0.250000
vt 0.221609 0.250000
vt 0.297319 0.250000
vt 0.419821 0.250000
vt 0.457677 0.368034
vt 0.580179 0.368034
vt 0.679285 0.440983
vt 0.641430 0.322949
vt 0.740536 0.250000
vt 0.839643 0.322949
vt 0.000000 0.166667
vt 0.166667 0.166667
vt 0.000000 0.333333
vt 0.166667 0.333333
vt 0.333333 0.166667
vt 0.333333 0.333333
vt 0.500000 0.166667
vt 0.500000 0.333333
vt 0.666667 0.166667
vt 0.666667 0.333333
vt 0.833333 0.166667
vt 0.833333 0.333333
vt 1.000000 0.166667
vt 1.000000 0.333333
vt 0.000000 0.500000
vt 0.166667 0.500000
vt 0.333333 0.500000
vt 0.500000 0.500000
vt 0.666667 0.500000
vt 0.833333 0.500000
vt 1.000000 0.500000
vt 0.000000 0.666667
vt 0.166667 0.666667
vt 0.333333 0.666667
vt 0.500000 0.666667
vt 0.666667 0.666667
vt 0.833333 0.666667
vt 1.000000 0.666667
vt 0.000000 0.833333
vt 0.166667 0.833333
vt 0.333333 0.833333
vt 0.500000 0.833333
vt 0.666667 0.833333
vt 0.833333 0.833333
vt 1.000000 0.833333
vt 0.083333 0.000000
vt 0.250000 0.000000
vt 0.416667 0.000000
vt 0.583333 0.000000
vt 0.750000 0.000000
vt 0.916667 0.000000
vt 0.083333 1.000000
vt 0.250000 1.000000
vt 0.416667 1.000000
vt 0.583333 1.000000
vt 0.750000 1.000000
vt 0.916667 1.000000
vt 0.000000 0.166667
vt 0.166667 0.166667
vt 0.000000 0.333333
vt 0.166667 0.333333
vt 0.333333 0.166667
vt 0.333333 0.333333
vt 0.500000 0.166667
vt 0.500000 0.333333
vt 0.666667 0.166667
vt 0.666667 0.333333
vt 0.833333 0.166667
vt 0.833333 0.333333
vt 1.000000 0.166667
vt 1.000000 0.333333
vt 0.000000 0.500000
vt 0.166667 0.500000
vt 0.333333 0.500000
vt 0.500000 0.500000
vt 0.666667 0.500000
vt 0.833333 0.500000
vt 1.000000 0.500000
vt 0.000000 0.666667
vt 0.166667 0.666667
vt 0.333333 0.666667
vt 0.500000 0.666667
vt 0.666667 0.666667
vt 0.833333 0.666667
vt 1.000000 0.666667
vt 0.000000 0.833333
vt 0.166667 0.833333
vt 0.333333 0.833333
vt 0.500000 0.833333
vt 0.666667 0.833333
vt 0.833333 0.833333
vt 1.000000 0.833333
vt 0.083333 0.000000
vt 0.250000 0.000000
vt 0.416667 0.000000
vt 0.583333 0.000000
vt 0.750000 0.000000
vt 0.916667 0.000000
vt 0.083333 1.000000
vt 0.250000 1.000000
vt 0.416667 1.000000
vt 0.583333 1.000000
vt 0.750000 1.000000
vt 0.916667 1.000000
vt 0.000000 0.166667
vt 0.166667 0.166667
vt 0.000000 0.333333
vt 0.166667 0.333333
vt 0.333333 0.166667
vt 0.333333 0.333333
vt 0.500000 0.166667
vt 0.500000 0.333333
vt 0.666667 0.166667
vt 0.666667 0.333333
vt 0.833333 0.166667
vt 0.833333 0.333333
vt 1.000000 0.166667
vt 1.000000 0.333333
vt 0.000000 0.500000
vt 0.166667 0.500000
vt 0.333333 0.500000
vt 0.500000 0.500000
vt 0.666667 0.500000
vt 0.833333 0.500000
vt 1.000000 0.500000
vt 0.000000 0.666667
vt 0.166667 0.666667
vt 0.333333 0.666667
vt 0.500000 0.666667
vt 0.666667 0.666667
vt 0.833333 0.666667
vt 1.000000 0.666667
vt 0.000000 0.833333
vt 0.166667 0.833333
vt 0.333333 0.833333
vt 0.500000 0.833333
vt 0.666667 0.833333
vt 0.833333 0.833333
vt 1.000000 0.833333
vt 0.083333 0.000000
vt 0.250000 0.000000
vt 0.416667 0.000000
vt 0.583333 0.000000
vt 0.750000 0.000000
vt 0.916667 0.000000
vt 0.083333 1.000000
vt 0.250000 1.000000
vt 0.416667 1.000000
vt 0.583333 1.000000
vt 0.750000 1.000000
vt 0.916667 1.000000
vt 0.198213 0.559017
vt 0.099106 0.631966
vt 0.000000 0.559017
vt 0.037855 0.440983
vt 0.160357 0.440983
vt 0.259464 0.368034
vt 0.358570 0.440983
vt 0.320715 0.559017
vt 0.358570 0.677051
vt 0.259464 0.750000
vt 0.160357 0.677051
vt 0.481072 0.440983
vt 0.518928 0.559017
vt 0.419821 0.631966
vt 0.580179 0.750000
vt 0.542323 0.631966
vt 0.641430 0.559017
vt 0.740536 0.631966
vt 0.702681 0.750000
vt 0.900894 0.750000
vt 0.778391 0.750000
vt 0.839643 0.559017
vt 0.938749 0.631966
vt 0.962145 0.559017
vt 0.801787 0.440983
vt 0.900894 0.368034
vt 1.000000 0.440983
vt 0.061251 0.368034
vt 0.099106 0.250000
vt 0.221609 0.250000
vt 0.297319 0.250000
vt 0.419821 0.250000
vt 0.457677 0.368034
vt 0.580179 0.368034
vt 0.679285 0.440983
vt 0.641430 0.322949
vt 0.740536 0.250000
vt 0.839643 0.322949
vt 0.198213 0.559017
vt 0.099106 0.631966
vt 0.000000 0.559017
vt 0.037855 0.440983
vt 0.160357 0.440983
vt 0.259464 0.368034
vt 0.358570 0.440983
vt 0.320715 0.559017
vt 0.358570 0.677051
vt 0.259464 0.750000
vt 0.160357 0.677051
vt 0.481072 0.440983
vt 0.518928 0.559017
vt 0.419821 0.631966
vt 0.580179 0.750000
vt 0.542323 0.631966
vt 0.641430 0.559017
vt 0.740536 0.631966
vt 0.702681 0.750000
vt 0.900894 0.750000
vt 0.778391 0.750000
vt 0.839643 0.559017
vt 0.938749 0.631966
vt 0.962145 0.559017
vt 0.801787 0.440983
vt 0.900894 0.368034
vt 1.000000 0.440983
vt 0.061251 0.368034
vt 0.099106 0.250000
vt 0.221609 0.250000
vt 0.297319 0.250000
vt 0.419821 0.250000
vt 0.457677 0.368034
vt 0.580179 0.368034
vt 0.679285 0.440983
vt 0.641430 0.322949
vt 0.740536 0.250000
vt 0.839643 0.322949
vt 0.000000 0.166667
vt 0.166667 0.166667
vt 0.000000 0.333333
vt 0.166667 0.333333
vt 0.333333 0.166667
vt 0.333333 0.333333
vt 0.500000 0.166667
vt 0.500000 0.333333
vt 0.666667 0.166667
vt 0.666667 0.333333
vt 0.833333 0.166667
vt 0.833333 0.333333
vt 1.000000 0.166667
vt 1.000000 0.333333
vt 0.000000 0.500000
vt 0.166667 0.500000
vt 0.333333 0.500000
vt 0.500000 0.500000
vt 0.666667 0.500000
vt 0.833333 0.500000
vt 1.000000 0.500000
vt 0.000000 0.666667
vt 0.166667 0.666667
vt 0.333333 0.666667
vt 0.500000 0.666667
vt 0.666667 0.666667
vt 0.833333 0.666667
vt 1.000000 0.666667
vt 0.000000 0.833333
vt 0.166667 0.833333
vt 0.333333 0.833333
vt 0.500000 0.833333
vt 0.666667 0.833333
vt 0.833333 0.833333
vt 1.000000 0.833333
vt 0.083333 0.000000
vt 0.250000 0.000000
vt 0.416667 0.000000
vt 0.583333 0.000000
vt 0.750000 0.000000
vt 0.916667 0.000000
vt 0.083333 1.000000
vt 0.250000 1.000000
vt 0.416667 1.000000
vt 0.583333 1.000000
vt 0.750000 1.000000
vt 0.916667 1.000000
vt 0.198213 0.559017
vt 0.099106 0.631966
vt 0.000000 0.559017
vt 0.037855 0.440983
vt 0.160357 0.440983
vt 0.259464 0.368034
vt 0.358570 0.440983
vt 0.320715 0.559017
vt 0.358570 0.677051
vt 0.259464 0.750000
vt 0.160357 0.677051
vt 0.481072 0.440983
vt 0.518928 0.559017
vt 0.419821 0.631966
vt 0.580179 0.750000
vt 0.542323 0.631966
vt 0.641430 0.559017
vt 0.740536 0.631966
vt 0.702681 0.750000
vt 0.900894 0.750000
vt 0.778391 0.750000
vt 0.839643 0.559017
vt 0.938749 0.631966
vt 0.962145 0.559017
vt 0.801787 0.440983
vt 0.900894 0.368034
vt 1.000000 0.440983
vt 0.061251 0.368034
vt 0.099106 0.250000
vt 0.221609 0.250000
vt 0.297319 0.250000
vt 0.419821 0.250000
vt 0.457677 0.368034
vt 0.580179 0.368034
vt 0.679285 0.440983
vt 0.641430 0.322949
vt 0.740536 0.250000
vt 0.839643 0.322949
f 1/7 5/8 3/9 4/6 2/4
f 8/3 6/14 7/10 1/7 2/4
f 1/7 7/10 17/11 20/12 5/13
f 6/14 11/15 12/16 17/17 7/10
f 17/30 12/31 9/27 16/28 20/29
f 5/34 20/35 16/28 14/32 3/33
f 3/38 14/32 15/23 19/36 4/37
f 2/4 4/5 19/1 18/2 8/3
f 8/3 18/18 13/19 11/20 6/14
f 9/27 12/16 11/15 13/26 10/24
f 10/24 13/25 18/21 19/22 15/23
f 10/24 15/23 14/32 16/28 9/27
f 21/39 22/40 27/41
f 27/41 22/40 28/42
f 22/40 23/43 28/42
f 28/42 23/43 29/44
f 23/43 24/45 29/44
f 29/44 24/45 30/46
f 24/45 25/47 30/46
f 30/46 25/47 31/48
f 25/47 26/49 31/48
f 31/48 26/49 32/50
f 26/49 21/51 32/50
f 32/50 21/51 27/52
f 27/41 28/42 33/53
f 33/53 28/42 34/54
f 28/42 29/44 34/54
f 34/54 29/44 35/55
f 29/44 30/46 35/55
f 35/55 30/46 36/56
f 30/46 31/48 36/56
f 36/56 31/48 37/57
f 31/48 32/50 37/57
f 37/57 32/50 38/58
f 32/50 27/52 38/58
f 38/58 27/52 33/59
f 33/53 34/54 39/60
f 39/60 34/54 40/61
f 34/54 35/55 40/61
f 40/61 35/55 41/62
f 35/55 36/56 41/62
f 41/62 36/56 42/63
f 36/56 37/57 42/63
f 42/63 37/57 43/64
f 37/57 38/58 43/64
f 43/64 38/58 44/65
f 38/58 33/59 44/65
f 44/65 33/59 39/66
f 39/60 40/61 45/67
f 45/67 40/61 46/68
f 40/61 41/62 46/68
f 46/68 41/62 47/69
f 41/62 42/63 47/69
f 47/69 42/63 48/70
f 42/63 43/64 48/70
f 48/70 43/64 49/71
f 43/64 44/65 49/71
f 49/71 44/65 50/72
f 44/65 39/66 50/72
f 50/72 39/66 45/73
f 22/40 21/39 51/74
f 23/43 22/40 51/75
f 24/45 23/43 51/76
f 25/47 24/45 51/77
f 26/49 25/47 51/78
f 21/51 26/49 51/79
f 45/67 46/68 52/80
f 46/68 47/69 52/81
f 47/69 48/70 52/82
f 48/70 49/71 52/83
f 49/71 50/72 52/84
f 50/72 45/73 52/85
f 53/86 54/87 60/88
f 60/88 54/87 61/89
f 54/87 55/90 61/89
f 61/89 55/90 62/91
f 55/90 56/92 62/91
f 62/91 56/92 63/93
f 56/92 57/94 63/93
f 63/93 57/94 64/95
f 57/94 58/96 64/95
f 64/95 58/96 65/97
f 58/96 59/98 65/97
f 65/97 59/98 66/99
f 59/98 53/100 66/99
f 66/99 53/100 60/101
f 60/88 61/89 67/102
f 67/102 61/89 68/103
f 61/89 62/91 68/103
f 68/103 62/91 69/104
f 62/91 63/93 69/104
f 69/104 63/93 70/105
f 63/93 64/95 70/105
f 70/105 64/95 71/106
f 64/95 65/97 71/106
f 71/106 65/97 72/107
f 65/97 66/99 72/107
f 72/107 66/99 73/108
f 66/99 60/101 73/108
f 73/108 60/101 67/109
f 67/102 68/103 74/110
f 74/110 68/103 75/111
f 68/103 69/104 75/111
f 75/111 69/104 76/112
f 69/104 70/105 76/112
f 76/112 70/105 77/113
f 70/105 71/106 77/113
f 77/113 71/106 78/114
f 71/106 72/107 78/114
f 78/114 72/107 79/115
f 72/107 73/108 79/115
f 79/115 73/108 80/116
f 73/108 67/109 80/116
f 80/116 67/109 74/117
f 74/110 75/111 81/118
f 81/118 75/111 82/119
f 75/111 76/112 82/119
f 82/119 76/112 83/120
f 76/112 77/113 83/120
f 83/120 77/113 84/121
f 77/113 78/114 84/121
f 84/121 78/114 85/122
f 78/114 79/115 85/122
f 85/122 79/115 86/123
f 79/115 80/116 86/123
f 86/123 80/116 87/124
f 80/116 74/117 87/124
f 87/124 74/117 81/125
f 81/118 82/119 88/126
f 88/126 82/119 89/127
f 82/119 83/120 89/127
f 89/127 83/120 90/128
f 83/120 84/121 90/128
f 90/128 84/121 91/129
f 84/121 85/122 91/129
f 91/129 85/122 92/130
f 85/122 86/123 92/130
f 92/130 86/123 93/131
f 86/123 87/124 93/131
f 93/131 87/124 94/132
f 87/124 81/125 94/132
f 94/132 81/125 88/133
f 54/87 53/86 95/134
f 55/90 54/87 95/135
f 56/92 55/90 95/136
f 57/94 56/92 95/137
f 58/96 57/94 95/138
f 59/98 58/96 95/139
f 53/100 59/98 95/140
f 88/126 89/127 96/141
f 89/127 90/128 96/142
f 90/128 91/129 96/143
f 91/129 92/130 96/144
f 92/130 93/131 96/145
f 93/131 94/132 96/146
f 94/132 88/133 96/147
f 97/148 101/149 99/150 100/151 98/152
f 104/153 102/154 103/155 97/148 98/152
f 97/148 103/155 113/156 116/157 101/158
f 102/154 107/159 108/160 113/161 103/155
f 113/162 108/163 105/164 112/165 116/166
f 101/167 116/168 112/165 110/169 99/170
f 99/171 110/169 111/172 115/173 100/174
f 98/152 100/175 115/176 114/177 104/153
f 104/153 114/178 109/179 107/180 102/154
f 105/164 108/160 107/159 109/181 106/182
f 106/182 109/183 114/184 115/185 111/172
f 106/182 111/172 110/169 112/165 105/164
f 117/186 118/187 123/188
f 123/188 118/187 124/189
f 118/187 119/190 124/189
f 124/189 119/190 125/191
f 119/190 120/192 125/191
f 125/191 120/192 126/193
f 120/192 121/194 126/193
f 126/193 121/194 127/195
f 121/194 122/196 127/195
f 127/195 122/196 128/197
f 122/196 117/198 128/197
f 128/197 117/198 123/199
f 123/188 124/189 129/200
f 129/200 124/189 130/201
f 124/189 125/191 130/201
f 130/201 125/191 131/202
f 125/191 126/193 131/202
f 131/202 126/193 132/203
f 126/193 127/195 132/203
f 132/203 127/195 133/204
f 127/195 128/197 133/204
f 133/204 128/197 134/205
f 128/197 123/199 134/205
f 134/205 123/199 129/206
f 129/200 130/201 135/207
f 135/207 130/201 136/208
f 130/201 131/202 136/208
f 136/208 131/202 137/209
f 131/202 132/203 137/209
f 137/209 132/203 138/210
f 132/203 133/204 138/210
f 138/210 133/204 139/211
f 133/204 134/205 139/211
f 139/211 134/205 140/212
f 134/205 129/206 140/212
f 140/212 129/206 135/213
f 135/207 136/208 141/214
f 141/214 136/208 142/215
f 136/208 137/209 142/215
f 142/215 137/209 143/216
f 137/209 138/210 143/216
f 143/216 138/210 144/217
f 138/210 139/211 144/217
f 144/217 139/211 145/218
f 139/211 140/212 145/218
f 145/218 140/212 146/219
f 140/212 135/213 146/219
f 146/219 135/213 141/220
f 118/187 117/186 147/221
f 119/190 118/187 147/222
f 120/192 119/190 147/223
f 121/194 120/192 147/224
f 122/196 121/194 147/225
f 117/198 122/196 147/226
f 141/214 142/215 148/227
f 142/215 143/216 148/228
f 143/216 144/217 148/229
f 144/217 145/218 148/230
f 145/218 146/219 148/231
f 146/219 141/220 148/232
f 149/233 150/234 155/235
f 155/235 150/234 156/236
f 150/234 151/237 156/236
f 156/236 151/237 157/238
f 151/237 152/239 157/238
f 157/238 152/239 158/240
f 152/239 153/241 158/240
f 158/240 153/241 159/242
f 153/241 154/243 159/242
f 159/242 154/243 160/244
f 154/243 149/245 160/244
f 160/244 149/245 155/246
f 155/235 156/236 161/247
f 161/247 156/236 162/248
f 156/236 157/238 162/248
f 162/248 157/238 163/249
f 157/238 158/240 163/249
f 163/249 158/240 164/250
f 158/240 159/242 164/250
f 164/250 159/242 165/251
f 159/242 160/244 165/251
f 165/251 160/244 166/252
f 160/244 155/246 166/252
f 166/252 155/246 161/253
f 161/247 162/248 167/254
f 167/254 162/248 168/255
f 162/248 163/249 168/255
f 168/255 163/249 169/256
f 163/249 164/250 169/256
f 169/256 164/250 170/257
f 164/250 165/251 170/257
f 170/257 165/251 171/258
f 165/251 166/252 171/258
f 171/258 166/252 172/259
f 166/252 161/253 172/259
f 172/259 161/253 167/260
f 167/254 168/255 173/261
f 173/261 168/255 174/262
f 168/255 169/256 174/262
f 174/262 169/256 175/263
f 169/256 170/257 175/263
f 175/263 170/257 176/264
f 170/257 171/258 176/264
f 176/264 171/258 177/265
f 171/258 172/259 177/265
f 177/265 172/259 178/266
f 172/259 167/260 178/266
f 178/266 167/260 173/267
f 150/234 149/233 179/268
f 151/237 150/234 179/269
f 152/239 151/237 179/270
f 153/241 152/239 179/271
f 154/243 153/241 179/272
f 149/245 154/243 179/273
f 173/261 174/262 180/274
f 174/262 175/263 180/275
f 175/263 176/264 180/276
f 176/264 177/265 180/277
f 177/265 178/266 180/278
f 178/266 173/267 180/279
f 181/280 182/281 187/282
f 187/282 182/281 188/283
f 182/281 183/284 188/283
f 188/283 183/284 189/285
f 183/284 184/286 189/285
f 189/285 184/286 190/287
f 184/286 185/288 190/287
f 190/287 185/288 191/289
f 185/288 186/290 191/289
f 191/289 186/290 192/291
f 186/290 181/292 192/291
f 192/291 181/292 187/293
f 187/282 188/283 193/294
f 193/294 188/283 194/295
f 188/283 189/285 194/295
f 194/295 189/285 195/296
f 189/285 190/287 195/296
f 195/296 190/287 196/297
f 190/287 191/289 196/297
f 196/297 191/289 197/298
f 191/289 192/291 197/298
f 197/298 192/291 198/299
f 192/291 187/293 198/299
f 198/299 187/293 193/300
f 193/294 194/295 199/301
f 199/301 194/295 200/302
f 194/295 195/296 200/302
f 200/302 195/296 201/303
f 195/296 196/297 201/303
f 201/303 196/297 202/304
f 196/297 197/298 202/304
f 202/304 197/298 203/305
f 197/298 198/299 203/305
f 203/305 198/299 204/306
f 198/299 193/300 204/306
f 204/306 193/300 199/307
f 199/301 200/302 205/308
f 205/308 200/302 206/309
f 200/302 201/303 206/309
f 206/309 201/303 207/310
f 201/303 202/304 207/310
f 207/310 202/304 208/311
f 202/304 203/305 208/311
f 208/311 203/305 209/312
f 203/305 204/306 209/312
f 209/312 204/306 210/313
f 204/306 199/307 210/313
f 210/313 199/307 205/314
f 182/281 181/280 211/315
f 183/284 182/281 211/316
f 184/286 183/284 211/317
f 185/288 184/286 211/318
f 186/290 185/288 211/319
f 181/292 186/290 211/320
f 205/308 206/309 212/321
f 206/309 207/310 212/322
f 207/310 208/311 212/323
f 208/311 209/312 212/324
f 209/312 210/313 212/325
f 210/313 205/314 212/326
f 213/327 217/328 215/329 216/330 214/331
f 220/332 218/333 219/334 213/327 214/331
f 213/327 219/334 229/335 232/336 217/337
f 218/333 223/338 224/339 229/340 219/334
f 229/341 224/342 221/343 228/344 232/345
f 217/346 232/347 228/344 226/348 215/349
f 215/350 226/348 227/351 231/352 216/353
f 214/331 216/354 231/355 230/356 220/332
f 220/332 230/357 225/358 223/359 218/333
f 221/343 224/339 223/338 225/360 222/361
f 222/361 225/362 230/363 231/364 227/351
f 222/361 227/351 226/348 228/344 221/343
f 233/365 237/366 235/367 236/368 234/369
f 240/370 238/371 239/372 233/365 234/369
f 233/365 239/372 249/373 252/374 237/375
f 238/371 243/376 244/377 249/378 239/372
f 249/379 244/380 241/381 248/382 252/383
f 237/384 252/385 248/382 246/386 235/387
f 235/388 246/386 247/389 251/390 236/391
f 234/369 236/392 251/393 250/394 240/370
f 240/370 250/395 245/396 243/397 238/371
f 241/381 244/377 243/376 245/398 242/399
f 242/399 245/400 250/401 251/402 247/389
f 242/399 247/389 246/386 248/382 241/381
f 253/403 254/404 259/405
f 259/405 254/404 260/406
f 254/404 255/407 260/406
f 260/406 255/407 261/408
f 255/407 256/409 261/408
f 261/408 256/409 262/410
f 256/409 257/411 262/410
f 262/410 257/411 263/412
f 257/411 258/413 263/412
f 263/412 258/413 264/414
f 258/413 253/415 264/414
f 264/414 253/415 259/416
f 259/405 260/406 265/417
f 265/417 260/406 266/418
f 260/406 261/408 266/418
f 266/418 261/408 267/419
f 261/408 262/410 267/419
f 267/419 262/410 268/420
f 262/410 263/412 268/420
f 268/420 263/412 269/421
f 263/412 264/414 269/421
f 269/421 264/414 270/422
f 264/414 259/416 270/422
f 270/422 259/416 265/423
f 265/417 266/418 271/424
f 271/424 266/418 272/425
f 266/418 267/419 272/425
f 272/425 267/419 273/426
f 267/419 268/420 273/426
f 273/426 268/420 274/427
f 268/420 269/421 274/427
f 274/427 269/421 275/428
f 269/421 270/422 275/428
f 275/428 270/422 276/429
f 270/422 265/423 276/429
f 276/429 265/423 271/430
f 271/424 272/425 277/431
f 277/431 272/425 278/432
f 272/425 273/426 278/432
f 278/432 273/426 279/433
f 273/426 274/427 279/433
f 279/433 274/427 280/434
f 274/427 275/428 280/434
f 280/434 275/428 281/435
f 275/428 276/429 281/435
f 281/435 276/429 282/436
f 276/429 271/430 282/436
f 282/436 271/430 277/437
f 254/404 253/403 283/438
f 255/407 254/404 283/439
f 256/409 255/407 283/440
f 257/411 256/409 283/441
f 258/413 257/411 283/442
f 253/415 258/413 283/443
f 277/431 278/432 284/444
f 278/432 279/433 284/445
f 279/433 280/434 284/446
f 280/434 281/435 284/447
f 281/435 282/436 284/448
f 282/436 277/437 284/449
f 285/450 289/451 287/452 288/453 286/454
f 292/455 290/456 291/457 285/450 286/454
f 285/450 291/457 301/458 304/459 289/460
f 290/456 295/461 296/462 301/463 291/457
f 301/464 296/465 293/466 300/467 304/468
f 289/469 304/470 300/467 298/471 287/472
f 287/473 298/471 299/474 303/475 288/476
f 286/454 288/477 303/478 302/479 292/455
f 292/455 302/480 297/481 295/482 290/456
f 293/466 296/462 295/461 297/483 294/484
f 294/484 297/485 302/486 303/487 299/474
f 294/484 299/474 298/471 300/467 293/466
