# This file uses meters as units for non-parametric coordinates.

mtllib Ground_1.mtl
g default
v -2000.000000 -0.000000 2000.000000
v 2000.000000 -0.000000 2000.000000
v -2000.000000 0.000000 -2000.000000
v 2000.000000 0.000000 -2000.000000
vt 0.001992 0.001992
vt 0.998008 0.001992
vt 0.998008 0.998008
vt 0.001992 0.998008
vn 0.000000 1.000000 0.000000
vn 0.000000 1.000000 0.000000
vn 0.000000 1.000000 0.000000
vn 0.000000 1.000000 0.000000
s off
g Ground_1
usemtl lambert2SG
f 1/1/1 2/2/2 4/3/3 3/4/4
